%YAML 1.1
%TAG !u! tag:unity3d.com,2011:
--- !u!114 &11400000
MonoBehaviour:
  m_ObjectHideFlags: 0
  m_CorrespondingSourceObject: {fileID: 0}
  m_PrefabInstance: {fileID: 0}
  m_PrefabAsset: {fileID: 0}
  m_GameObject: {fileID: 0}
  m_Enabled: 1
  m_EditorHideFlags: 0
  m_Script: {fileID: 11500000, guid: bf086878b1e4bdb48ac4b893b4c1001f, type: 3}
  m_Name: DataContainer
  m_EditorClassIdentifier: 
  FinishStagePrefab: {fileID: 5171095516033548766, guid: e4b3efed02d9eb446ad57d5fedd631a1,
    type: 3}
  PhotoFramePrefab: {fileID: 0}
  IconChangeModel: {fileID: 5726833877835826000, guid: 4962368659f048344bbfbf8a646388d7,
    type: 3}
  Perses: []
  Colors:
  - {r: 0.9339623, g: 0.118948035, b: 0.118948035, a: 1}
  - {r: 0.11216002, g: 0.8207547, b: 0.05032932, a: 1}
  - {r: 0.08962262, g: 0.5509013, b: 1, a: 1}
  - {r: 1, g: 0.6520374, b: 0.0047169924, a: 1}
  - {r: 0.9622642, g: 0.031772893, b: 0.7128782, a: 1}
  - {r: 0, g: 1, b: 0.8580704, a: 1}
  - {r: 1, g: 0.9831489, b: 0, a: 1}
  - {r: 0.6415094, g: 0.3656931, b: 0.009077947, a: 1}
  Hat:
    departmentType: 6
    Prefabs:
    - {fileID: 1289927157870427359, guid: 71a4f3d70bf9d3643b8bb98e6f4d9f75, type: 3}
    - {fileID: 1768982897147155387, guid: 932cfa41698b0514a9bea35bf54d9fa1, type: 3}
    - {fileID: 8140869293870403873, guid: 82b14e470aadfed4ebcb878727931377, type: 3}
    - {fileID: 646625049862354656, guid: 0e8ea32ee504d654fba496470d9dd307, type: 3}
    - {fileID: 3130163835409071227, guid: 17d2652d1b30a5847bd7db29dbb8700a, type: 3}
    - {fileID: 8702091483792483940, guid: 7d51b7ff0c51250449b2c3d7896b5084, type: 3}
    - {fileID: 6390549674804339367, guid: e9a454e2df5c00842a038726a7c96bcb, type: 3}
    - {fileID: 8328460268050520709, guid: c958ea9c4ec0ee04f9a669661af2952b, type: 3}
    - {fileID: 8398355016204864510, guid: 967edfc8ef9c6f84889fb2c153ca54a9, type: 3}
    Decorses:
    - Decors:
      - Tap: {fileID: 0}
        Sprites:
        - {fileID: 5934842884560547169, guid: 7ef6fffbd69558f43945e13efd99ceeb, type: 3}
        Number: 0
      - Tap: {fileID: 0}
        Sprites:
        - {fileID: -5903758016679952365, guid: 45c4aa659c92b6e41819114b2262b4a9, type: 3}
        Number: 0
      - Tap: {fileID: 0}
        Sprites:
        - {fileID: -2814095231878439679, guid: 45570d579a320a94d82bedc8ee1db533, type: 3}
        Number: 0
      - Tap: {fileID: 0}
        Sprites:
        - {fileID: -1893010407311841242, guid: 258a31f6fa37278429b9ac5cbecb0e44, type: 3}
        Number: 0
      - Tap: {fileID: 0}
        Sprites:
        - {fileID: -2072212172365636433, guid: ac5119e91c90ef64589d750b0619e98f, type: 3}
        Number: 0
      - Tap: {fileID: 0}
        Sprites:
        - {fileID: 8455960505420924872, guid: 405ed5b74b623f14e82384ab010f21ee, type: 3}
        Number: 0
      - Tap: {fileID: 0}
        Sprites:
        - {fileID: -9003571358358462725, guid: 548630577076bca4c9c886bb0a452118, type: 3}
        Number: 0
      - Tap: {fileID: 0}
        Sprites:
        - {fileID: 3427399353729855967, guid: 28cbc823a52af3d408548a40628095f2, type: 3}
        Number: 0
      - Tap: {fileID: 0}
        Sprites:
        - {fileID: 2376209215366848580, guid: acd21a4d5fbffed4eb5380ced65dc48b, type: 3}
        Number: 0
      - Tap: {fileID: 0}
        Sprites:
        - {fileID: 7458135251439567805, guid: 3d8914e51c5331946a406166994b49c8, type: 3}
        Number: 0
      - Tap: {fileID: 0}
        Sprites:
        - {fileID: -7843385679652019096, guid: 73eadef9a68aadb45961bebb3b353757, type: 3}
        Number: 0
    ColorSprite: {fileID: 0}
  Puffer:
    departmentType: 0
    Prefabs:
    - {fileID: 8059277446364137667, guid: 4715fd98049c46a44b8237f8b7356ff8, type: 3}
    - {fileID: 6212355231505619143, guid: f0c77c3f99d7d7d40b2d5c48128c3ca9, type: 3}
    - {fileID: 3044906387175984416, guid: 30c8ffd84a911c64e97387b74491396c, type: 3}
    - {fileID: 8449475915196022067, guid: be64823babd658a49967b236cccbd506, type: 3}
    Decorses:
    - Decors:
      - Tap: {fileID: 0}
        Sprites:
        - {fileID: 21300000, guid: a23f69df77c100042bd5b6a1777ef48b, type: 3}
        Number: 0
      - Tap: {fileID: 0}
        Sprites:
        - {fileID: 21300000, guid: e7c5c995c63a4174d923c26c000a97ab, type: 3}
        Number: 0
      - Tap: {fileID: 0}
        Sprites:
        - {fileID: 21300000, guid: 104afef69c8c5e24d8bd406f857fc8fd, type: 3}
        Number: 0
      - Tap: {fileID: 0}
        Sprites:
        - {fileID: 21300000, guid: 954cace7ccb4ac64b9928accb471f7b5, type: 3}
        Number: 0
      - Tap: {fileID: 0}
        Sprites:
        - {fileID: 21300000, guid: 86b470fa11459314da5cc1375591b768, type: 3}
        Number: 0
      - Tap: {fileID: 0}
        Sprites:
        - {fileID: 21300000, guid: 65cd4b33c9394124f974f0f3281773ba, type: 3}
        Number: 0
      - Tap: {fileID: 0}
        Sprites:
        - {fileID: 21300000, guid: a7d2aca872ed7704b96ff39b233d8d28, type: 3}
        Number: 0
      - Tap: {fileID: 0}
        Sprites:
        - {fileID: 21300000, guid: ce9fef13caf558a408303c97809d36b1, type: 3}
        Number: 0
    - Decors:
      - Tap: {fileID: 8818039698827711961, guid: 7da204eaad3bd2d43ad2e76f92425227,
          type: 3}
        Sprites:
        - {fileID: -5118384968321393457, guid: 7da204eaad3bd2d43ad2e76f92425227, type: 3}
        - {fileID: -4089126855617643678, guid: 7da204eaad3bd2d43ad2e76f92425227, type: 3}
        Number: 1
      - Tap: {fileID: 1060532061642157983, guid: 26bb5037a8856ab43b1da8d1ebb8f4f0,
          type: 3}
        Sprites:
        - {fileID: 2253032095823048696, guid: 26bb5037a8856ab43b1da8d1ebb8f4f0, type: 3}
        - {fileID: -5553198808424273180, guid: 26bb5037a8856ab43b1da8d1ebb8f4f0, type: 3}
        Number: 1
      - Tap: {fileID: -5253743431276526612, guid: c304f8567ebf6cc469a8c8ccead6d546,
          type: 3}
        Sprites:
        - {fileID: -8172850217207545746, guid: c304f8567ebf6cc469a8c8ccead6d546, type: 3}
        - {fileID: 2155710388950683770, guid: c304f8567ebf6cc469a8c8ccead6d546, type: 3}
        Number: 1
      - Tap: {fileID: -8699538686024107004, guid: 2519d09f2128ef14087d5046a850a870,
          type: 3}
        Sprites:
        - {fileID: 438516928945400797, guid: 2519d09f2128ef14087d5046a850a870, type: 3}
        - {fileID: 8796354325783434087, guid: 2519d09f2128ef14087d5046a850a870, type: 3}
        Number: 1
      - Tap: {fileID: -7000766477219768430, guid: e96d821c455be744bb415ecf604e4f53,
          type: 3}
        Sprites:
        - {fileID: 222232517389662402, guid: e96d821c455be744bb415ecf604e4f53, type: 3}
        - {fileID: -7436292388244730968, guid: e96d821c455be744bb415ecf604e4f53, type: 3}
        Number: 1
      - Tap: {fileID: 8385554032254235567, guid: c703b6d69b0ee524b9f16ff9b4d3756e,
          type: 3}
        Sprites:
        - {fileID: -723753040059301226, guid: c703b6d69b0ee524b9f16ff9b4d3756e, type: 3}
        - {fileID: -8050940790232254160, guid: c703b6d69b0ee524b9f16ff9b4d3756e, type: 3}
        Number: 1
      - Tap: {fileID: -4428306354010510169, guid: 5c8016456afe9464388bba72d96b6a13,
          type: 3}
        Sprites:
        - {fileID: 8313544729205553663, guid: 5c8016456afe9464388bba72d96b6a13, type: 3}
        - {fileID: -3903988823566631926, guid: 5c8016456afe9464388bba72d96b6a13, type: 3}
        Number: 1
      - Tap: {fileID: -3406639564665108508, guid: 2862b37b5bd3bbe45b85a2c5ab5c3c55,
          type: 3}
        Sprites:
        - {fileID: 1298401289285163124, guid: 2862b37b5bd3bbe45b85a2c5ab5c3c55, type: 3}
        - {fileID: -6515175515974123775, guid: 2862b37b5bd3bbe45b85a2c5ab5c3c55, type: 3}
        Number: 1
    ColorSprite: {fileID: 21300000, guid: 1f9c070f01755354793959f3f8583d89, type: 3}
  Scarf:
    departmentType: 2
    Prefabs:
    - {fileID: 6189805442326406473, guid: 586fbe6051661a6488e23040ab5334a2, type: 3}
    - {fileID: 318091804016132430, guid: d4b741dceb6aeba4ca8ababa983a73e8, type: 3}
    - {fileID: -1156267156006527684, guid: 068b5944fbd0c2a4bac3a78e20b493c4, type: 3}
    - {fileID: 3300650238573005056, guid: de61a9b5acd5f8245ae1031c2a1cff3b, type: 3}
    - {fileID: 2678812233348986117, guid: f3db98a2c9d89184190d45db98d84622, type: 3}
    - {fileID: -9211365220565968767, guid: aac470c2284828f4690d806f0f8e88ec, type: 3}
    - {fileID: 8396754322189856755, guid: 4df8c597eef10004cb1422f3cf26ae9a, type: 3}
    - {fileID: -3463644619307302824, guid: 60d6acc93158ed148911548945e9417c, type: 3}
    - {fileID: -894164545910731897, guid: da15ab7e41f7cf846a95d3159da2a148, type: 3}
    Decorses:
    - Decors:
      - Tap: {fileID: 0}
        Sprites:
        - {fileID: -6138152043050252821, guid: b8bdd30d3f8a8a2468e93356b721156b, type: 3}
        Number: 0
      - Tap: {fileID: 0}
        Sprites:
        - {fileID: -5367817625609799595, guid: 97c98e1c0c1d74f4fa2d4ae46c0ab4e5, type: 3}
        Number: 0
      - Tap: {fileID: 0}
        Sprites:
        - {fileID: 4702548271512087042, guid: e1674ddce1a8ec5449ca4f7ac413ccfb, type: 3}
        Number: 0
      - Tap: {fileID: 0}
        Sprites:
        - {fileID: -8997074798107618467, guid: 00c306ebc591028428a99bb5cd108b1d, type: 3}
        Number: 0
      - Tap: {fileID: 0}
        Sprites:
        - {fileID: -6985566200625254980, guid: 887710e227bec8e488de25ebd19dc874, type: 3}
        Number: 0
      - Tap: {fileID: 0}
        Sprites:
        - {fileID: -3839949291583529148, guid: 0470bfb46d904ea4b80916b2cffaec5b, type: 3}
        Number: 0
      - Tap: {fileID: 0}
        Sprites:
        - {fileID: -8443196021305726350, guid: 7d341bc35d5297c4ca89faeccc69ff60, type: 3}
        Number: 0
      - Tap: {fileID: 0}
        Sprites:
        - {fileID: -67247985562877975, guid: d77baa8ddab74684bbcca9f715b392ae, type: 3}
        Number: 0
      - Tap: {fileID: 0}
        Sprites:
        - {fileID: -9042764859319135885, guid: 19a9d6bba75b4214b93fac8480cb529b, type: 3}
        Number: 0
      - Tap: {fileID: 0}
        Sprites:
        - {fileID: 3684402713243781006, guid: 871e86e633f11d2418ef5a318fe5eb76, type: 3}
        Number: 0
      - Tap: {fileID: 0}
        Sprites:
        - {fileID: 6001762843313517326, guid: ea33c66a90431614894a7694bbc1c316, type: 3}
        Number: 0
      - Tap: {fileID: 0}
        Sprites:
        - {fileID: -6566319720407590852, guid: ff3eb95df9edc41488aba85ae70194b0, type: 3}
        Number: 0
      - Tap: {fileID: 0}
        Sprites:
        - {fileID: -3921013365394751354, guid: 1c21a068ba3f9d7448c7d06b5ef7721e, type: 3}
        Number: 0
      - Tap: {fileID: 0}
        Sprites:
        - {fileID: -579922328642301479, guid: e667fa3a22750c8408acb04ab3459366, type: 3}
        Number: 0
      - Tap: {fileID: 0}
        Sprites:
        - {fileID: -4971052867285378518, guid: 0b78401819e2b3440a79383674764cc8, type: 3}
        Number: 0
    ColorSprite: {fileID: 0}
  Shoes:
    departmentType: 5
    Prefabs: []
    Decorses: []
    ColorSprite: {fileID: 0}
  Bottom:
    departmentType: 1
    Prefabs:
    - {fileID: 7040480890237823274, guid: de4527982d2ed1d428dc55e8a8f7ecdb, type: 3}
    - {fileID: 3723572139921015826, guid: 86fd9d75766e7ff4f9851e709938ef70, type: 3}
    - {fileID: 5643099884992804666, guid: dca4a72ea9d65e94abcf80a4f1e3fa6d, type: 3}
    - {fileID: 1209157323573400221, guid: 62538365b035f2e42aaaf800641277e0, type: 3}
    Decorses: []
    ColorSprite: {fileID: 21300000, guid: c030b98fa1229ac43975ca491788d551, type: 3}
  Dress:
    departmentType: 3
    Prefabs:
    - {fileID: 8608073865985028237, guid: fb1e43ea30af7f9498d0c26c3bcf70fb, type: 3}
    - {fileID: 208437096980002146, guid: 7c7e35e66c77dd148a9f9be9e41ee577, type: 3}
    - {fileID: 5428486826715219131, guid: e3333716b26415b45afab68851377718, type: 3}
    - {fileID: 4452535080864672121, guid: 27a9ef7166e7bce4c99e00d81a18b5c8, type: 3}
    Decorses:
    - Decors:
      - Tap: {fileID: 21300000, guid: 60be0702888be6b4e96cf80bfb61ceb4, type: 3}
        Sprites:
        - {fileID: 21300000, guid: e49c0231746bda340996b808ee3e4de2, type: 3}
        Number: 0
      - Tap: {fileID: 21300000, guid: 10247621f8eef644ba36519bf6330df6, type: 3}
        Sprites:
        - {fileID: 21300000, guid: 453f1b959450d0649b624013bcf43987, type: 3}
        Number: 0
      - Tap: {fileID: 21300000, guid: 18a63409337e26b4a8ec89b3572cd4eb, type: 3}
        Sprites:
        - {fileID: 21300000, guid: 5951fa577ab305940a004abed67b475c, type: 3}
        Number: 0
      - Tap: {fileID: 21300000, guid: d601e3c388093894c8fbe8c0ccf1f8c6, type: 3}
        Sprites:
        - {fileID: 21300000, guid: a84780645b0d2094c9f9858f4b2e2056, type: 3}
        Number: 0
      - Tap: {fileID: 21300000, guid: 4b93c4533a6f11c40bcb25947c2d80c0, type: 3}
        Sprites:
        - {fileID: 21300000, guid: 123dfa6f225afcc49861b6787ad9bbf9, type: 3}
        Number: 0
      - Tap: {fileID: 21300000, guid: 8345fa9f213bc8742b4a24195bc978d7, type: 3}
        Sprites:
        - {fileID: 21300000, guid: 91c7e47be9bc7804da1b9e8c10a49776, type: 3}
        Number: 0
      - Tap: {fileID: 21300000, guid: cd5e09dc3f97d194d95d7c138dea4ea8, type: 3}
        Sprites:
        - {fileID: 21300000, guid: 4856e499db4d3d7439476cf36238cc61, type: 3}
        Number: 0
    ColorSprite: {fileID: 21300000, guid: c030b98fa1229ac43975ca491788d551, type: 3}
  Upper:
    departmentType: 4
    Prefabs: []
    Decorses: []
    ColorSprite: {fileID: 0}
